<svg xmlns="http://www.w3.org/2000/svg" width="10.582" height="24.778" viewBox="0 0 10.582 24.778">
    <path id="prefix__Path_4569" d="M24.514 4.535a1.518 1.518 0 0 0-.173-.228c-.521-.393-1.051-.774-1.558-1.186a16.226 16.226 0 0 1-1.293-1.175c-.5-.5-.974-1.035-1.442-1.571A.9.9 0 0 0 19.4.006C19.273 0 19.192 0 19.123.133a.263.263 0 0 1-.474.018C18.621.111 18.6.07 18.55 0a1.589 1.589 0 0 0 .127.888A1.028 1.028 0 0 1 18.5.832c-.117-.066-.229-.141-.346-.208a.3.3 0 0 0-.38.08.226.226 0 0 0-.017.3 3.86 3.86 0 0 0 .3.506 11.587 11.587 0 0 0 2.265 2.26c.1.074.172.172.261.255.155.144.312.284.468.426l-.019.056H20.2l.108.123c-.215.022-.414.048-.614.06a4.677 4.677 0 0 1-.98.032 6.476 6.476 0 0 0-1.567-.02 1.858 1.858 0 0 0-.367.107.837.837 0 0 1-.221.059c-.329 0-.657-.024-.985-.017-.54.013-1.081.045-1.621.067-.237.01-.473.022-.71.024a.68.68 0 0 1-.193-.049c-.039-.012-.075-.044-.112-.045s-.1.03-.149.028c-.5-.013-1.008-.033-1.512-.043a11 11 0 0 1-2.017-.118c-.06-.012-.131.04-.2.061a2.81 2.81 0 0 1-.5.143 4.133 4.133 0 0 1-.527-.019c-.266-.005-.532 0-.8 0-1-.015-2-.034-3-.049a.866.866 0 0 0-.227.035 1.61 1.61 0 0 1-.323.1 18.7 18.7 0 0 0-2.126.1c-.41.069-.831.056-1.248.084H.13c-.03.112-.066.222-.111.33A2.809 2.809 0 0 0 0 5.857c.05.006.1.013.149.021a.378.378 0 0 1 .25.175.375.375 0 0 0 .366.258c.314.005.628.008.942.011a.228.228 0 0 1 .229.125.5.5 0 0 0 .405.232c-.025-.031-.05-.058-.071-.087-.106-.145-.076-.223.1-.247a.786.786 0 0 1 .108-.006c.5 0 1.009 0 1.513.008q2.734.057 5.468.12c.163 0 .326-.013.489-.021v-.053c-.084-.007-.168-.019-.252-.022-.262-.011-.525-.015-.787-.032-.055 0-.108-.052-.162-.079l.013-.06c.1-.013.2-.031.3-.039a8.911 8.911 0 0 0 1.34-.114 4.17 4.17 0 0 1 1.15.031c.178.012.355.056.532.084v.05a12.039 12.039 0 0 1-1.9.218c.147.025.294.03.441.044a13.867 13.867 0 0 1 1.611-.044.109.109 0 0 0 .045-.008l.547-.12a.337.337 0 0 1 .244-.242.258.258 0 0 1-.011-.1c0-.04-.079-.093-.13-.126a.9.9 0 0 0-.171-.066l.014-.054.882.129-.038.165a8.658 8.658 0 0 1 .965.021h.167a.475.475 0 0 1 .141.025l.321.027a.347.347 0 0 0 .037-.09.14.14 0 0 1 .175-.122q1.039.073 2.079.143v.066l-.386.032a.4.4 0 0 1 .1.106l2.741-.141c-.055.074-.083.118-.117.155q-.423.449-.848.894c-.467.491-.943.973-1.4 1.475a6.407 6.407 0 0 0-.51.7.415.415 0 0 0-.026.169c-.014.118-.021.238-.043.354s-.058.222-.088.332h.216a2.268 2.268 0 0 0 .275-.138 1.469 1.469 0 0 1 .822-.4.392.392 0 0 0 .187-.07c.292-.178.579-.368.875-.538a2.115 2.115 0 0 1 .4-.147.986.986 0 0 0 .2-.055c.131-.082.249-.186.379-.27.66-.433 1.323-.86 1.982-1.294.21-.139.412-.292.617-.44.079-.056.152-.113.244-.067a6.51 6.51 0 0 1 .5-.454 8.667 8.667 0 0 1 .9-1.066l.011-.01a1.91 1.91 0 0 0 .073-.364.48.48 0 0 0-.091-.306zM19.1 1.184a.617.617 0 0 1 .414.343.639.639 0 0 1-.414-.343zM6.687 6.191v-.028h.551v.028zm.84-.016c.22-.052.456-.118.7-.158a3.078 3.078 0 0 1 .471 0 2.33 2.33 0 0 1-1.171.158zm4.569-.1a1.634 1.634 0 0 1-.8-.2 3.776 3.776 0 0 1 1.338.027.573.573 0 0 1-.534.172zm5.2-.245l-1.868-.114v-.058a9.154 9.154 0 0 1 1.868.117c.004.017.004.035.004.053zm3.639-.93v.046h-.393V4.9zm-1.458 2.544a2.148 2.148 0 0 1 .2-.249c.267-.251.541-.493.812-.738a.211.211 0 0 0 .041-.048c.036-.063.07-.127.107-.189.007-.012.026-.017.041-.02l.41-.089a6.967 6.967 0 0 1-1.611 1.333zm2.861-2.938c.007-.1.06-.119.135-.065a.417.417 0 0 1 .148.363.37.37 0 0 1-.283-.298z" data-name="Path 4569" transform="rotate(90.97 5.203 5.29)" style="fill:#fff"/>
</svg>
