<svg xmlns="http://www.w3.org/2000/svg" width="28.934" height="28.933" viewBox="0 0 28.934 28.933">
    <defs>
        <style>
            .cls-1{opacity:.406}.cls-2{fill:#fff}
        </style>
    </defs>
    <g id="Group_391" class="cls-1" data-name="Group 391" transform="translate(0 -.002)">
        <path id="Path_3625" d="M10.291 83.485H3.1v17.568h17.561v-7.2h3.08v10.3H0V80.41h10.291z" class="cls-2" data-name="Path 3625" transform="translate(0 -75.211)"/>
        <path id="Path_3626" d="M173.169 51.97l-3.8-3.805L181.227 36.3l3.8 3.808z" class="cls-2" data-name="Path 3626" transform="translate(-158.425 -33.952)"/>
        <path id="Path_3627" d="M121.354 247.33l3.3 3.323-5.221 1.921c.655-1.792 1.29-3.524 1.921-5.244z" class="cls-2" data-name="Path 3627" transform="translate(-111.712 -231.344)"/>
        <path id="Path_3628" d="M376.71.738a2.73 2.73 0 0 1 3.848 3.87z" class="cls-2" data-name="Path 3628" transform="translate(-352.365)"/>
    </g>
</svg>
